// Jest Snapshot v1, https://goo.gl/fbAQLP

exports[`<YourVisit /> should render the same snapshot each time 1`] = `
Object {
  "asFragment": [Function],
  "baseElement": <body>
    <div>
      <div
        class="container"
      >
        <div
          class="row"
        >
          <h3>
            When we're open:
          </h3>
        </div>
        <div
          class="row"
        >
          <div
            class="col-4 offset-4"
          >
            Open
          </div>
          <div
            class="col-4"
          >
            Close
          </div>
        </div>
        <div
          class="row"
        >
          <div
            class="col-4"
          >
            Monday
          </div>
          <div
            class="col-4"
          >
            11:00
          </div>
          <div
            class="col-4"
          >
            23:00
          </div>
        </div>
        <div
          class="row"
        >
          <div
            class="col-4"
          >
            Tuesday
          </div>
          <div
            class="col-4"
          >
            11:00
          </div>
          <div
            class="col-4"
          >
            23:00
          </div>
        </div>
        <div
          class="row"
        >
          <div
            class="col-4"
          >
            Wednesday
          </div>
          <div
            class="col-4"
          >
            11:00
          </div>
          <div
            class="col-4"
          >
            23:00
          </div>
        </div>
        <div
          class="row"
        >
          <div
            class="col-4"
          >
            Thursday
          </div>
          <div
            class="col-4"
          >
            11:00
          </div>
          <div
            class="col-4"
          >
            00:00
          </div>
        </div>
        <div
          class="row"
        >
          <div
            class="col-4"
          >
            Friday
          </div>
          <div
            class="col-4"
          >
            10:00
          </div>
          <div
            class="col-4"
          >
            01:00
          </div>
        </div>
        <div
          class="row"
        >
          <div
            class="col-4"
          >
            Saturday
          </div>
          <div
            class="col-4"
          >
            09:00
          </div>
          <div
            class="col-4"
          >
            01:00
          </div>
        </div>
        <div
          class="row"
        >
          <div
            class="col-4"
          >
            Sunday
          </div>
          <div
            class="col-4"
          >
            10:00
          </div>
          <div
            class="col-4"
          >
            23:00
          </div>
        </div>
      </div>
    </div>
  </body>,
  "container": <div>
    <div
      class="container"
    >
      <div
        class="row"
      >
        <h3>
          When we're open:
        </h3>
      </div>
      <div
        class="row"
      >
        <div
          class="col-4 offset-4"
        >
          Open
        </div>
        <div
          class="col-4"
        >
          Close
        </div>
      </div>
      <div
        class="row"
      >
        <div
          class="col-4"
        >
          Monday
        </div>
        <div
          class="col-4"
        >
          11:00
        </div>
        <div
          class="col-4"
        >
          23:00
        </div>
      </div>
      <div
        class="row"
      >
        <div
          class="col-4"
        >
          Tuesday
        </div>
        <div
          class="col-4"
        >
          11:00
        </div>
        <div
          class="col-4"
        >
          23:00
        </div>
      </div>
      <div
        class="row"
      >
        <div
          class="col-4"
        >
          Wednesday
        </div>
        <div
          class="col-4"
        >
          11:00
        </div>
        <div
          class="col-4"
        >
          23:00
        </div>
      </div>
      <div
        class="row"
      >
        <div
          class="col-4"
        >
          Thursday
        </div>
        <div
          class="col-4"
        >
          11:00
        </div>
        <div
          class="col-4"
        >
          00:00
        </div>
      </div>
      <div
        class="row"
      >
        <div
          class="col-4"
        >
          Friday
        </div>
        <div
          class="col-4"
        >
          10:00
        </div>
        <div
          class="col-4"
        >
          01:00
        </div>
      </div>
      <div
        class="row"
      >
        <div
          class="col-4"
        >
          Saturday
        </div>
        <div
          class="col-4"
        >
          09:00
        </div>
        <div
          class="col-4"
        >
          01:00
        </div>
      </div>
      <div
        class="row"
      >
        <div
          class="col-4"
        >
          Sunday
        </div>
        <div
          class="col-4"
        >
          10:00
        </div>
        <div
          class="col-4"
        >
          23:00
        </div>
      </div>
    </div>
  </div>,
  "debug": [Function],
  "findAllByAltText": [Function],
  "findAllByDisplayValue": [Function],
  "findAllByLabelText": [Function],
  "findAllByPlaceholderText": [Function],
  "findAllByRole": [Function],
  "findAllByTestId": [Function],
  "findAllByText": [Function],
  "findAllByTitle": [Function],
  "findByAltText": [Function],
  "findByDisplayValue": [Function],
  "findByLabelText": [Function],
  "findByPlaceholderText": [Function],
  "findByRole": [Function],
  "findByTestId": [Function],
  "findByText": [Function],
  "findByTitle": [Function],
  "getAllByAltText": [Function],
  "getAllByDisplayValue": [Function],
  "getAllByLabelText": [Function],
  "getAllByPlaceholderText": [Function],
  "getAllByRole": [Function],
  "getAllByTestId": [Function],
  "getAllByText": [Function],
  "getAllByTitle": [Function],
  "getByAltText": [Function],
  "getByDisplayValue": [Function],
  "getByLabelText": [Function],
  "getByPlaceholderText": [Function],
  "getByRole": [Function],
  "getByTestId": [Function],
  "getByText": [Function],
  "getByTitle": [Function],
  "queryAllByAltText": [Function],
  "queryAllByDisplayValue": [Function],
  "queryAllByLabelText": [Function],
  "queryAllByPlaceholderText": [Function],
  "queryAllByRole": [Function],
  "queryAllByTestId": [Function],
  "queryAllByText": [Function],
  "queryAllByTitle": [Function],
  "queryByAltText": [Function],
  "queryByDisplayValue": [Function],
  "queryByLabelText": [Function],
  "queryByPlaceholderText": [Function],
  "queryByRole": [Function],
  "queryByTestId": [Function],
  "queryByText": [Function],
  "queryByTitle": [Function],
  "rerender": [Function],
  "unmount": [Function],
}
`;
